{
  "currentTime": 1500,
  "workTime": 1500,
  "breakTime": 300,
  "longBreakTime": 1200,
  "maxTime": 1500,
  "working": true,
  "timerStarted": false,
  "maxRounds": 4,
  "currentRound": 1,
  "workSong": "./sounds/work.mp3",
  "breakSong": "./sounds/break.mp3",
  "volume": 66,
  "volumeIcon": "Medium"
}